{
  "id": "remotejob/fastaitranslation",
  "title": "fastaitranslation",
  "code_file": "kagglerun.py",
  "language": "python",
  "kernel_type": "script",
  "is_private": "true",
  "enable_gpu": "true",
  "enable_internet": "true",
  "dataset_sources": ["remotejob/fastaitranslationdata"],
  "competition_sources": [],
  "kernel_sources": []
}